{
	"data": {
		"curPage": 1,
		"datas": [
			{
				"adminAdd": false,
				"apkLink": "",
				"audit": 1,
				"author": "",
				"canEdit": false,
				"chapterId": 502,
				"chapterName": "自助",
				"collect": false,
				"courseId": 13,
				"desc": "",
				"descMd": "",
				"envelopePic": "",
				"fresh": true,
				"host": "",
				"id": 25239,
				"isAdminAdd": false,
				"link": "https://juejin.cn/post/7175752374458253373",
				"niceDate": "11小时前",
				"niceShareDate": "11小时前",
				"origin": "",
				"prefix": "",
				"projectLink": "",
				"publishTime": 1670735267000,
				"realSuperChapterId": 493,
				"selfVisible": 0,
				"shareDate": 1670735267000,
				"shareUser": "pika",
				"superChapterId": 494,
				"superChapterName": "广场Tab",
				"tags": [],
				"title": "Suspend函数与回调的互相转换",
				"type": 0,
				"userId": 133632,
				"visible": 1,
				"zan": 0
			},
			{
				"adminAdd": false,
				"apkLink": "",
				"audit": 1,
				"author": "",
				"canEdit": false,
				"chapterId": 502,
				"chapterName": "自助",
				"collect": false,
				"courseId": 13,
				"desc": "",
				"descMd": "",
				"envelopePic": "",
				"fresh": true,
				"host": "",
				"id": 25237,
				"isAdminAdd": false,
				"link": "https://juejin.cn/post/7175504805236834360/",
				"niceDate": "1天前",
				"niceShareDate": "1天前",
				"origin": "",
				"prefix": "",
				"projectLink": "",
				"publishTime": 1670679023000,
				"realSuperChapterId": 493,
				"selfVisible": 0,
				"shareDate": 1670679023000,
				"shareUser": "sweetying",
				"superChapterId": 494,
				"superChapterName": "广场Tab",
				"tags": [],
				"title": "App 黑白化技术实践下篇 审",
				"type": 0,
				"userId": 5405,
				"visible": 1,
				"zan": 0
			},
			{
				"adminAdd": false,
				"apkLink": "",
				"audit": 1,
				"author": "",
				"canEdit": false,
				"chapterId": 502,
				"chapterName": "自助",
				"collect": false,
				"courseId": 13,
				"desc": "",
				"descMd": "",
				"envelopePic": "",
				"fresh": false,
				"host": "",
				"id": 25233,
				"isAdminAdd": false,
				"link": "https://juejin.cn/post/7174054610301091877",
				"niceDate": "2天前",
				"niceShareDate": "2天前",
				"origin": "",
				"prefix": "",
				"projectLink": "",
				"publishTime": 1670574919000,
				"realSuperChapterId": 493,
				"selfVisible": 0,
				"shareDate": 1670574919000,
				"shareUser": "小海Poseidon",
				"superChapterId": 494,
				"superChapterName": "广场Tab",
				"tags": [],
				"title": "synchronized实现原理(字节码+汇编)",
				"type": 0,
				"userId": 88354,
				"visible": 1,
				"zan": 0
			},
			{
				"adminAdd": false,
				"apkLink": "",
				"audit": 1,
				"author": "",
				"canEdit": false,
				"chapterId": 502,
				"chapterName": "自助",
				"collect": false,
				"courseId": 13,
				"desc": "",
				"descMd": "",
				"envelopePic": "",
				"fresh": false,
				"host": "",
				"id": 25232,
				"isAdminAdd": false,
				"link": "https://juejin.cn/post/7172929109541486606",
				"niceDate": "2天前",
				"niceShareDate": "2天前",
				"origin": "",
				"prefix": "",
				"projectLink": "",
				"publishTime": 1670549916000,
				"realSuperChapterId": 493,
				"selfVisible": 0,
				"shareDate": 1670549916000,
				"shareUser": "qfh",
				"superChapterId": 494,
				"superChapterName": "广场Tab",
				"tags": [],
				"title": "Android创建型设计模式(简单工厂，工厂方法，抽象工厂，BitmapFactory简单工厂分析，Retrofit抽象工厂分析)",
				"type": 0,
				"userId": 128443,
				"visible": 1,
				"zan": 0
			},
			{
				"adminAdd": false,
				"apkLink": "",
				"audit": 1,
				"author": "",
				"canEdit": false,
				"chapterId": 502,
				"chapterName": "自助",
				"collect": false,
				"courseId": 13,
				"desc": "",
				"descMd": "",
				"envelopePic": "",
				"fresh": false,
				"host": "",
				"id": 25224,
				"isAdminAdd": false,
				"link": "https://juejin.cn/post/7174768835927965733",
				"niceDate": "2022-12-08 22:05",
				"niceShareDate": "2022-12-08 22:05",
				"origin": "",
				"prefix": "",
				"projectLink": "",
				"publishTime": 1670508325000,
				"realSuperChapterId": 493,
				"selfVisible": 0,
				"shareDate": 1670508325000,
				"shareUser": "sweetying",
				"superChapterId": 494,
				"superChapterName": "广场Tab",
				"tags": [],
				"title": "App 黑白化技术实践上篇",
				"type": 0,
				"userId": 5405,
				"visible": 1,
				"zan": 0
			},
			{
				"adminAdd": false,
				"apkLink": "",
				"audit": 1,
				"author": "",
				"canEdit": false,
				"chapterId": 502,
				"chapterName": "自助",
				"collect": false,
				"courseId": 13,
				"desc": "",
				"descMd": "",
				"envelopePic": "",
				"fresh": false,
				"host": "",
				"id": 25220,
				"isAdminAdd": false,
				"link": "https://juejin.cn/post/7168445102984003591",
				"niceDate": "2022-12-08 11:10",
				"niceShareDate": "2022-12-08 11:10",
				"origin": "",
				"prefix": "",
				"projectLink": "",
				"publishTime": 1670469035000,
				"realSuperChapterId": 493,
				"selfVisible": 0,
				"shareDate": 1670469035000,
				"shareUser": "wzhe800",
				"superChapterId": 494,
				"superChapterName": "广场Tab",
				"tags": [],
				"title": "Android斩首行动&mdash;滑动冲突",
				"type": 0,
				"userId": 109519,
				"visible": 1,
				"zan": 0
			},
			{
				"adminAdd": false,
				"apkLink": "",
				"audit": 1,
				"author": "",
				"canEdit": false,
				"chapterId": 502,
				"chapterName": "自助",
				"collect": false,
				"courseId": 13,
				"desc": "",
				"descMd": "",
				"envelopePic": "",
				"fresh": false,
				"host": "",
				"id": 25219,
				"isAdminAdd": false,
				"link": "https://juejin.cn/post/7174433454807842823",
				"niceDate": "2022-12-08 09:39",
				"niceShareDate": "2022-12-08 09:39",
				"origin": "",
				"prefix": "",
				"projectLink": "",
				"publishTime": 1670463550000,
				"realSuperChapterId": 493,
				"selfVisible": 0,
				"shareDate": 1670463550000,
				"shareUser": "郑浩东",
				"superChapterId": 494,
				"superChapterName": "广场Tab",
				"tags": [],
				"title": "简单易用的安卓SharedPreferences存储（数据存储系列）",
				"type": 0,
				"userId": 136897,
				"visible": 1,
				"zan": 0
			},
			{
				"adminAdd": false,
				"apkLink": "",
				"audit": 1,
				"author": "鸿洋",
				"canEdit": false,
				"chapterId": 408,
				"chapterName": "鸿洋",
				"collect": false,
				"courseId": 13,
				"desc": "",
				"descMd": "",
				"envelopePic": "",
				"fresh": false,
				"host": "",
				"id": 25226,
				"isAdminAdd": false,
				"link": "https://mp.weixin.qq.com/s/w4eQpP_CBiLtU0EPpYXRiQ",
				"niceDate": "2022-12-08 00:00",
				"niceShareDate": "2022-12-08 22:30",
				"origin": "",
				"prefix": "",
				"projectLink": "",
				"publishTime": 1670428800000,
				"realSuperChapterId": 407,
				"selfVisible": 0,
				"shareDate": 1670509851000,
				"shareUser": "",
				"superChapterId": 408,
				"superChapterName": "公众号",
				"tags": [
					{
						"name": "公众号",
						"url": "/wxarticle/list/408/1"
					}
				],
				"title": "一看就会，Android版本依赖管理的4种方式",
				"type": 0,
				"userId": -1,
				"visible": 1,
				"zan": 0
			},
			{
				"adminAdd": false,
				"apkLink": "",
				"audit": 1,
				"author": "郭霖",
				"canEdit": false,
				"chapterId": 409,
				"chapterName": "郭霖",
				"collect": false,
				"courseId": 13,
				"desc": "",
				"descMd": "",
				"envelopePic": "",
				"fresh": false,
				"host": "",
				"id": 25227,
				"isAdminAdd": false,
				"link": "https://mp.weixin.qq.com/s/4gHPkrTcD7-Hmup_FSkOtg",
				"niceDate": "2022-12-08 00:00",
				"niceShareDate": "2022-12-08 22:31",
				"origin": "",
				"prefix": "",
				"projectLink": "",
				"publishTime": 1670428800000,
				"realSuperChapterId": 407,
				"selfVisible": 0,
				"shareDate": 1670509869000,
				"shareUser": "",
				"superChapterId": 408,
				"superChapterName": "公众号",
				"tags": [
					{
						"name": "公众号",
						"url": "/wxarticle/list/409/1"
					}
				],
				"title": "终于理解～Android模块化里的资源冲突了",
				"type": 0,
				"userId": -1,
				"visible": 1,
				"zan": 0
			},
			{
				"adminAdd": false,
				"apkLink": "",
				"audit": 1,
				"author": "xiaoyang",
				"canEdit": false,
				"chapterId": 440,
				"chapterName": "官方",
				"collect": false,
				"courseId": 13,
				"desc": "<p>一次无意的排查crash 的过程中，发现应用崩溃时，各种so在虚拟内存中的映射都是apk的路径，顿时觉得很奇怪，百般查证，更终发现是android:extractNativeLibs的影响。</p>\r\n<p>于是百度了一下，发现相关文章还挺多：<br><img src=\"https://www.wanandroid.com/blogimgs/c63e46d4-c392-45a6-b5b0-f75e3b19afd1.png\" alt></p>\r\n<p>问题来了：</p>\r\n<ol>\r\n<li>此属性的具体作用是什么？</li>\r\n<li>设置前后会产生什么影响？（可以从安装、以及运行时两个角度考虑。）</li>\r\n</ol>",
				"descMd": "",
				"envelopePic": "",
				"fresh": false,
				"host": "",
				"id": 24889,
				"isAdminAdd": false,
				"link": "https://www.wanandroid.com/wenda/show/24889",
				"niceDate": "2022-12-07 14:43",
				"niceShareDate": "2022-11-08 09:56",
				"origin": "",
				"prefix": "",
				"projectLink": "",
				"publishTime": 1670395396000,
				"realSuperChapterId": 439,
				"selfVisible": 0,
				"shareDate": 1667872595000,
				"shareUser": "",
				"superChapterId": 440,
				"superChapterName": "问答",
				"tags": [
					{
						"name": "本站发布",
						"url": "/article/list/0?cid=440"
					},
					{
						"name": "问答",
						"url": "/wenda"
					}
				],
				"title": "每日一问 | 瘦身属性？对android:extractNativeLibs属性的探讨",
				"type": 0,
				"userId": 2,
				"visible": 1,
				"zan": 0
			},
			{
				"adminAdd": false,
				"apkLink": "",
				"audit": 1,
				"author": "",
				"canEdit": false,
				"chapterId": 502,
				"chapterName": "自助",
				"collect": false,
				"courseId": 13,
				"desc": "",
				"descMd": "",
				"envelopePic": "",
				"fresh": false,
				"host": "",
				"id": 25214,
				"isAdminAdd": false,
				"link": "https://juejin.cn/post/7174065150968725534",
				"niceDate": "2022-12-07 08:25",
				"niceShareDate": "2022-12-07 08:25",
				"origin": "",
				"prefix": "",
				"projectLink": "",
				"publishTime": 1670372729000,
				"realSuperChapterId": 493,
				"selfVisible": 0,
				"shareDate": 1670372729000,
				"shareUser": "RicardoMJiang",
				"superChapterId": 494,
				"superChapterName": "广场Tab",
				"tags": [],
				"title": "江同学的 2022 年终总结，请查收~",
				"type": 0,
				"userId": 13971,
				"visible": 1,
				"zan": 0
			},
			{
				"adminAdd": false,
				"apkLink": "",
				"audit": 1,
				"author": "张鸿洋",
				"canEdit": false,
				"chapterId": 543,
				"chapterName": "Android技术周报",
				"collect": false,
				"courseId": 13,
				"desc": "",
				"descMd": "",
				"envelopePic": "",
				"fresh": false,
				"host": "",
				"id": 25212,
				"isAdminAdd": false,
				"link": "https://www.wanandroid.com/blog/show/3462",
				"niceDate": "2022-12-07 00:00",
				"niceShareDate": "2022-12-07 00:10",
				"origin": "",
				"prefix": "",
				"projectLink": "",
				"publishTime": 1670342400000,
				"realSuperChapterId": 542,
				"selfVisible": 0,
				"shareDate": 1670343000000,
				"shareUser": "",
				"superChapterId": 543,
				"superChapterName": "技术周报",
				"tags": [],
				"title": "Android 技术周刊 （2022-11-30 ~ 2022-12-07）",
				"type": 0,
				"userId": -1,
				"visible": 1,
				"zan": 0
			},
			{
				"adminAdd": false,
				"apkLink": "",
				"audit": 1,
				"author": "鸿洋",
				"canEdit": false,
				"chapterId": 408,
				"chapterName": "鸿洋",
				"collect": false,
				"courseId": 13,
				"desc": "",
				"descMd": "",
				"envelopePic": "",
				"fresh": false,
				"host": "",
				"id": 25225,
				"isAdminAdd": false,
				"link": "https://mp.weixin.qq.com/s/ZRqwCYtTZZv6r9wuVZirKw",
				"niceDate": "2022-12-07 00:00",
				"niceShareDate": "2022-12-08 22:30",
				"origin": "",
				"prefix": "",
				"projectLink": "",
				"publishTime": 1670342400000,
				"realSuperChapterId": 407,
				"selfVisible": 0,
				"shareDate": 1670509832000,
				"shareUser": "",
				"superChapterId": 408,
				"superChapterName": "公众号",
				"tags": [
					{
						"name": "公众号",
						"url": "/wxarticle/list/408/1"
					}
				],
				"title": "程序猿如何成为技术专家？",
				"type": 0,
				"userId": -1,
				"visible": 1,
				"zan": 0
			},
			{
				"adminAdd": false,
				"apkLink": "",
				"audit": 1,
				"author": "郭霖",
				"canEdit": false,
				"chapterId": 409,
				"chapterName": "郭霖",
				"collect": false,
				"courseId": 13,
				"desc": "",
				"descMd": "",
				"envelopePic": "",
				"fresh": false,
				"host": "",
				"id": 25228,
				"isAdminAdd": false,
				"link": "https://mp.weixin.qq.com/s/qQAPg0PwefYhScdN5bBPnA",
				"niceDate": "2022-12-07 00:00",
				"niceShareDate": "2022-12-08 22:31",
				"origin": "",
				"prefix": "",
				"projectLink": "",
				"publishTime": 1670342400000,
				"realSuperChapterId": 407,
				"selfVisible": 0,
				"shareDate": 1670509884000,
				"shareUser": "",
				"superChapterId": 408,
				"superChapterName": "公众号",
				"tags": [
					{
						"name": "公众号",
						"url": "/wxarticle/list/409/1"
					}
				],
				"title": "Android ANR触发、监控、分析一网打尽",
				"type": 0,
				"userId": -1,
				"visible": 1,
				"zan": 0
			},
			{
				"adminAdd": false,
				"apkLink": "",
				"audit": 1,
				"author": "",
				"canEdit": false,
				"chapterId": 502,
				"chapterName": "自助",
				"collect": false,
				"courseId": 13,
				"desc": "",
				"descMd": "",
				"envelopePic": "",
				"fresh": false,
				"host": "",
				"id": 25192,
				"isAdminAdd": false,
				"link": "https://juejin.cn/post/7173646128360275999",
				"niceDate": "2022-12-06 20:52",
				"niceShareDate": "2022-12-06 08:38",
				"origin": "",
				"prefix": "",
				"projectLink": "",
				"publishTime": 1670331146000,
				"realSuperChapterId": 493,
				"selfVisible": 0,
				"shareDate": 1670287107000,
				"shareUser": "goweii",
				"superChapterId": 494,
				"superChapterName": "广场Tab",
				"tags": [],
				"title": "Android数据结构全面分析（中）",
				"type": 0,
				"userId": 20382,
				"visible": 1,
				"zan": 0
			},
			{
				"adminAdd": false,
				"apkLink": "",
				"audit": 1,
				"author": "",
				"canEdit": false,
				"chapterId": 502,
				"chapterName": "自助",
				"collect": false,
				"courseId": 13,
				"desc": "",
				"descMd": "",
				"envelopePic": "",
				"fresh": false,
				"host": "",
				"id": 25197,
				"isAdminAdd": false,
				"link": "https://juejin.cn/post/7173816645511544840",
				"niceDate": "2022-12-06 20:52",
				"niceShareDate": "2022-12-06 20:47",
				"origin": "",
				"prefix": "",
				"projectLink": "",
				"publishTime": 1670331143000,
				"realSuperChapterId": 493,
				"selfVisible": 0,
				"shareDate": 1670330833000,
				"shareUser": "鸿洋",
				"superChapterId": 494,
				"superChapterName": "广场Tab",
				"tags": [],
				"title": "这10张图拿去，别再说学不会RecyclerView的缓存复用机制了！",
				"type": 0,
				"userId": 2,
				"visible": 1,
				"zan": 0
			},
			{
				"adminAdd": false,
				"apkLink": "",
				"audit": 1,
				"author": "",
				"canEdit": false,
				"chapterId": 502,
				"chapterName": "自助",
				"collect": false,
				"courseId": 13,
				"desc": "",
				"descMd": "",
				"envelopePic": "",
				"fresh": false,
				"host": "",
				"id": 25198,
				"isAdminAdd": false,
				"link": "https://juejin.cn/post/7173494700081414181",
				"niceDate": "2022-12-06 20:52",
				"niceShareDate": "2022-12-06 20:47",
				"origin": "",
				"prefix": "",
				"projectLink": "",
				"publishTime": 1670331141000,
				"realSuperChapterId": 493,
				"selfVisible": 0,
				"shareDate": 1670330838000,
				"shareUser": "鸿洋",
				"superChapterId": 494,
				"superChapterName": "广场Tab",
				"tags": [],
				"title": "由浅入深，详解 LiveData 的那些事",
				"type": 0,
				"userId": 2,
				"visible": 1,
				"zan": 0
			},
			{
				"adminAdd": false,
				"apkLink": "",
				"audit": 1,
				"author": "",
				"canEdit": false,
				"chapterId": 502,
				"chapterName": "自助",
				"collect": false,
				"courseId": 13,
				"desc": "",
				"descMd": "",
				"envelopePic": "",
				"fresh": false,
				"host": "",
				"id": 25199,
				"isAdminAdd": false,
				"link": "https://juejin.cn/post/7173494906319536142",
				"niceDate": "2022-12-06 20:52",
				"niceShareDate": "2022-12-06 20:47",
				"origin": "",
				"prefix": "",
				"projectLink": "",
				"publishTime": 1670331140000,
				"realSuperChapterId": 493,
				"selfVisible": 0,
				"shareDate": 1670330844000,
				"shareUser": "鸿洋",
				"superChapterId": 494,
				"superChapterName": "广场Tab",
				"tags": [],
				"title": "协程(23) | Flow原理解析",
				"type": 0,
				"userId": 2,
				"visible": 1,
				"zan": 0
			},
			{
				"adminAdd": false,
				"apkLink": "",
				"audit": 1,
				"author": "",
				"canEdit": false,
				"chapterId": 502,
				"chapterName": "自助",
				"collect": false,
				"courseId": 13,
				"desc": "",
				"descMd": "",
				"envelopePic": "",
				"fresh": false,
				"host": "",
				"id": 25200,
				"isAdminAdd": false,
				"link": "https://juejin.cn/post/7173460152396300295",
				"niceDate": "2022-12-06 20:52",
				"niceShareDate": "2022-12-06 20:47",
				"origin": "",
				"prefix": "",
				"projectLink": "",
				"publishTime": 1670331136000,
				"realSuperChapterId": 493,
				"selfVisible": 0,
				"shareDate": 1670330871000,
				"shareUser": "鸿洋",
				"superChapterId": 494,
				"superChapterName": "广场Tab",
				"tags": [],
				"title": "Sqlite简易性能优化方案，给你的应用插上&ldquo;翅膀&rdquo;",
				"type": 0,
				"userId": 2,
				"visible": 1,
				"zan": 0
			},
			{
				"adminAdd": false,
				"apkLink": "",
				"audit": 1,
				"author": "",
				"canEdit": false,
				"chapterId": 502,
				"chapterName": "自助",
				"collect": false,
				"courseId": 13,
				"desc": "",
				"descMd": "",
				"envelopePic": "",
				"fresh": false,
				"host": "",
				"id": 25201,
				"isAdminAdd": false,
				"link": "https://juejin.cn/post/7173855642652770335",
				"niceDate": "2022-12-06 20:52",
				"niceShareDate": "2022-12-06 20:47",
				"origin": "",
				"prefix": "",
				"projectLink": "",
				"publishTime": 1670331133000,
				"realSuperChapterId": 493,
				"selfVisible": 0,
				"shareDate": 1670330878000,
				"shareUser": "鸿洋",
				"superChapterId": 494,
				"superChapterName": "广场Tab",
				"tags": [],
				"title": "APP隐私合规现状与防范措施",
				"type": 0,
				"userId": 2,
				"visible": 1,
				"zan": 0
			}
		],
		"offset": 0,
		"over": false,
		"pageCount": 678,
		"size": 20,
		"total": 13545
	},
	"errorCode": 0,
	"errorMsg": ""
}