{"data":{"curPage":10,"datas":[{"adminAdd":false,"apkLink":"","audit":1,"author":"郭霖","canEdit":false,"chapterId":409,"chapterName":"郭霖","collect":false,"courseId":13,"desc":"","descMd":"","envelopePic":"","fresh":false,"host":"","id":24918,"isAdminAdd":false,"link":"https://mp.weixin.qq.com/s/S0vHlUNsEjwM5Y3T3A49EA","niceDate":"2022-11-10 00:00","niceShareDate":"2022-11-11 09:14","origin":"","prefix":"","projectLink":"","publishTime":1668009600000,"realSuperChapterId":407,"selfVisible":0,"shareDate":1668129250000,"shareUser":"","superChapterId":408,"superChapterName":"公众号","tags":[{"name":"公众号","url":"/wxarticle/list/409/1"}],"title":"Android Drawable妙用和mutate()源码解析","type":0,"userId":-1,"visible":1,"zan":0},{"adminAdd":false,"apkLink":"","audit":1,"author":"","canEdit":false,"chapterId":502,"chapterName":"自助","collect":false,"courseId":13,"desc":"","descMd":"","envelopePic":"","fresh":false,"host":"","id":24901,"isAdminAdd":false,"link":"https://juejin.cn/post/7163985718417555487","niceDate":"2022-11-09 20:07","niceShareDate":"2022-11-09 20:07","origin":"","prefix":"","projectLink":"","publishTime":1667995646000,"realSuperChapterId":493,"selfVisible":0,"shareDate":1667995646000,"shareUser":"彭旭锐","superChapterId":494,"superChapterName":"广场Tab","tags":[],"title":"万字 HashMap 详解，基础（优雅）永不过时","type":0,"userId":30587,"visible":1,"zan":0},{"adminAdd":false,"apkLink":"","audit":1,"author":"","canEdit":false,"chapterId":502,"chapterName":"自助","collect":false,"courseId":13,"desc":"","descMd":"","envelopePic":"","fresh":false,"host":"","id":24898,"isAdminAdd":false,"link":"https://juejin.cn/post/7163634580212154376","niceDate":"2022-11-09 08:40","niceShareDate":"2022-11-09 08:40","origin":"","prefix":"","projectLink":"","publishTime":1667954446000,"realSuperChapterId":493,"selfVisible":0,"shareDate":1667954446000,"shareUser":"易保山","superChapterId":494,"superChapterName":"广场Tab","tags":[],"title":"读书笔记：穿越计算机的迷雾（上）","type":0,"userId":47679,"visible":1,"zan":0},{"adminAdd":false,"apkLink":"","audit":1,"author":"张鸿洋","canEdit":false,"chapterId":543,"chapterName":"Android技术周报","collect":false,"courseId":13,"desc":"","descMd":"","envelopePic":"","fresh":false,"host":"","id":24896,"isAdminAdd":false,"link":"https://www.wanandroid.com/blog/show/3448","niceDate":"2022-11-09 00:00","niceShareDate":"2022-11-09 00:10","origin":"","prefix":"","projectLink":"","publishTime":1667923200000,"realSuperChapterId":542,"selfVisible":0,"shareDate":1667923800000,"shareUser":"","superChapterId":543,"superChapterName":"技术周报","tags":[],"title":"Android 技术周刊 （2022-11-02 ~ 2022-11-09）","type":0,"userId":-1,"visible":1,"zan":0},{"adminAdd":false,"apkLink":"","audit":1,"author":"鸿洋","canEdit":false,"chapterId":408,"chapterName":"鸿洋","collect":false,"courseId":13,"desc":"","descMd":"","envelopePic":"","fresh":false,"host":"","id":24905,"isAdminAdd":false,"link":"https://mp.weixin.qq.com/s/da0wyU1pGTX79XkjpOIIsg","niceDate":"2022-11-09 00:00","niceShareDate":"2022-11-09 22:41","origin":"","prefix":"","projectLink":"","publishTime":1667923200000,"realSuperChapterId":407,"selfVisible":0,"shareDate":1668004907000,"shareUser":"","superChapterId":408,"superChapterName":"公众号","tags":[{"name":"公众号","url":"/wxarticle/list/408/1"}],"title":"Android 技术周刊（第10期）：新技术又来了？","type":0,"userId":-1,"visible":1,"zan":0},{"adminAdd":false,"apkLink":"","audit":1,"author":"郭霖","canEdit":false,"chapterId":409,"chapterName":"郭霖","collect":false,"courseId":13,"desc":"","descMd":"","envelopePic":"","fresh":false,"host":"","id":24906,"isAdminAdd":false,"link":"https://mp.weixin.qq.com/s/kanNsdzCv-Gs9ED3t-2mww","niceDate":"2022-11-09 00:00","niceShareDate":"2022-11-09 22:42","origin":"","prefix":"","projectLink":"","publishTime":1667923200000,"realSuperChapterId":407,"selfVisible":0,"shareDate":1668004921000,"shareUser":"","superChapterId":408,"superChapterName":"公众号","tags":[{"name":"公众号","url":"/wxarticle/list/409/1"}],"title":"Android开发中的WMS详细解析","type":0,"userId":-1,"visible":1,"zan":0},{"adminAdd":false,"apkLink":"","audit":1,"author":"xiaoyang","canEdit":false,"chapterId":440,"chapterName":"官方","collect":false,"courseId":13,"desc":"<p>当应用在运行过程中遇到异常状态，logcat中可能包含有用的辅助信息？</p>\r\n<p>例如在发生崩溃、ANR、严重丢帧时，如果能把近期的logcat信息一起上报上来辅助信息就好了。</p>\r\n<p>那么问题来了：</p>\r\n<ol>\r\n<li>如何获取当前应用产生的logcat信息呢？</li>\r\n<li>如何获取整个系统运行时产出的logcat信息呢？</li>\r\n</ol>\r\n<p>问题比较难，可以探索，不需要两问都回答哈。</p>","descMd":"","envelopePic":"","fresh":false,"host":"","id":23479,"isAdminAdd":false,"link":"https://wanandroid.com/wenda/show/23479","niceDate":"2022-11-08 21:50","niceShareDate":"2022-07-13 08:49","origin":"","prefix":"","projectLink":"","publishTime":1667915417000,"realSuperChapterId":439,"selfVisible":0,"shareDate":1657673382000,"shareUser":"","superChapterId":440,"superChapterName":"问答","tags":[{"name":"本站发布","url":"/article/list/0?cid=440"},{"name":"问答","url":"/wenda"}],"title":"每日一问 | 如何在崩溃时，如何获得logcat信息？","type":0,"userId":2,"visible":1,"zan":9},{"adminAdd":false,"apkLink":"","audit":1,"author":"xiaoyang","canEdit":false,"chapterId":440,"chapterName":"官方","collect":false,"courseId":13,"desc":"<p>周末学习无意看到的，题目源自接口时间的<a href=\"http://gk.link/a/11wFF\">深入 C 语言和程序运行原理</a>，一起来看问题吧。</p>\r\n<pre><code>\r\n#include &lt;stdio.h&gt;\r\nint main(void) {\r\n  int x = -10;\r\n  unsigned int y = 1;\r\n  if (x &lt; y) {\r\n    printf(&quot;x is smaller than y.&quot;);\r\n  } else {\r\n    printf(&quot;x is bigger than y.&quot;);  \r\n  }\r\n  return 0;\r\n}\r\n</code></pre><p>这样的一段代码，问题来了：</p>\r\n<ol>\r\n<li>更终会输出哪个分支？</li>\r\n<li>造成这样的原因是？</li>\r\n</ol>","descMd":"","envelopePic":"","fresh":false,"host":"","id":23646,"isAdminAdd":false,"link":"https://www.wanandroid.com/wenda/show/23646","niceDate":"2022-11-08 21:50","niceShareDate":"2022-07-24 11:54","origin":"","prefix":"","projectLink":"","publishTime":1667915401000,"realSuperChapterId":439,"selfVisible":0,"shareDate":1658634889000,"shareUser":"","superChapterId":440,"superChapterName":"问答","tags":[{"name":"本站发布","url":"/article/list/0?cid=440"},{"name":"问答","url":"/wenda"}],"title":"每日一问 | C 语言中的隐式替换造成的奇怪的逻辑","type":0,"userId":2,"visible":1,"zan":9},{"adminAdd":false,"apkLink":"","audit":1,"author":"","canEdit":false,"chapterId":502,"chapterName":"自助","collect":false,"courseId":13,"desc":"","descMd":"","envelopePic":"","fresh":false,"host":"","id":24888,"isAdminAdd":false,"link":"https://juejin.cn/post/7162995739323269128","niceDate":"2022-11-08 21:49","niceShareDate":"2022-11-08 08:43","origin":"","prefix":"","projectLink":"","publishTime":1667915377000,"realSuperChapterId":493,"selfVisible":0,"shareDate":1667868232000,"shareUser":"goweii","superChapterId":494,"superChapterName":"广场Tab","tags":[],"title":"【Android R】车载 Android 核心服务 - CarService 解析","type":0,"userId":20382,"visible":1,"zan":0},{"adminAdd":false,"apkLink":"","audit":1,"author":"","canEdit":false,"chapterId":502,"chapterName":"自助","collect":false,"courseId":13,"desc":"","descMd":"","envelopePic":"","fresh":false,"host":"","id":24890,"isAdminAdd":false,"link":"https://juejin.cn/post/7163301919316934693","niceDate":"2022-11-08 14:42","niceShareDate":"2022-11-08 14:42","origin":"","prefix":"","projectLink":"","publishTime":1667889739000,"realSuperChapterId":493,"selfVisible":0,"shareDate":1667889739000,"shareUser":"彭旭锐","superChapterId":494,"superChapterName":"广场Tab","tags":[],"title":"如何实现一个优秀的散列表？","type":0,"userId":30587,"visible":1,"zan":0},{"adminAdd":false,"apkLink":"","audit":1,"author":"","canEdit":false,"chapterId":502,"chapterName":"自助","collect":false,"courseId":13,"desc":"","descMd":"","envelopePic":"","fresh":false,"host":"","id":24884,"isAdminAdd":false,"link":"https://blog.csdn.net/vovo2000/article/details/106004475","niceDate":"2022-11-08 00:07","niceShareDate":"2022-11-07 10:39","origin":"","prefix":"","projectLink":"","publishTime":1667837225000,"realSuperChapterId":493,"selfVisible":0,"shareDate":1667788767000,"shareUser":"herozqtc","superChapterId":494,"superChapterName":"广场Tab","tags":[],"title":"一篇文章搞明白Kotlin的companion object","type":0,"userId":141281,"visible":1,"zan":0},{"adminAdd":false,"apkLink":"","audit":1,"author":"","canEdit":false,"chapterId":502,"chapterName":"自助","collect":false,"courseId":13,"desc":"","descMd":"","envelopePic":"","fresh":false,"host":"","id":24887,"isAdminAdd":false,"link":"https://juejin.cn/post/7162908642759409672","niceDate":"2022-11-08 00:07","niceShareDate":"2022-11-08 00:06","origin":"","prefix":"","projectLink":"","publishTime":1667837220000,"realSuperChapterId":493,"selfVisible":0,"shareDate":1667837201000,"shareUser":"鸿洋","superChapterId":494,"superChapterName":"广场Tab","tags":[],"title":"OpenGL ES 案例复刻(二) 一个律动的爱心","type":0,"userId":2,"visible":1,"zan":0},{"adminAdd":false,"apkLink":"","audit":1,"author":"Android群英传","canEdit":false,"chapterId":413,"chapterName":"Android群英传","collect":false,"courseId":13,"desc":"","descMd":"","envelopePic":"","fresh":false,"host":"","id":24893,"isAdminAdd":false,"link":"https://mp.weixin.qq.com/s/cQL--ngrSVus5ONlTI3bxg","niceDate":"2022-11-07 00:00","niceShareDate":"2022-11-08 23:09","origin":"","prefix":"","projectLink":"","publishTime":1667750400000,"realSuperChapterId":407,"selfVisible":0,"shareDate":1667920156000,"shareUser":"","superChapterId":408,"superChapterName":"公众号","tags":[{"name":"公众号","url":"/wxarticle/list/413/1"}],"title":"kotlin修炼指南8&mdash;集合中的高阶函数","type":0,"userId":-1,"visible":1,"zan":0},{"adminAdd":false,"apkLink":"","audit":1,"author":"郭霖","canEdit":false,"chapterId":409,"chapterName":"郭霖","collect":false,"courseId":13,"desc":"","descMd":"","envelopePic":"","fresh":false,"host":"","id":24894,"isAdminAdd":false,"link":"https://mp.weixin.qq.com/s/GWCigGoEdZHbY7D9zPqVdQ","niceDate":"2022-11-07 00:00","niceShareDate":"2022-11-08 23:09","origin":"","prefix":"","projectLink":"","publishTime":1667750400000,"realSuperChapterId":407,"selfVisible":0,"shareDate":1667920169000,"shareUser":"","superChapterId":408,"superChapterName":"公众号","tags":[{"name":"公众号","url":"/wxarticle/list/409/1"}],"title":"Android 13 返回导航大变更，返回键彻底废弃 + 可预见型返回手势","type":0,"userId":-1,"visible":1,"zan":0},{"adminAdd":false,"apkLink":"","audit":1,"author":"鸿洋","canEdit":false,"chapterId":408,"chapterName":"鸿洋","collect":false,"courseId":13,"desc":"","descMd":"","envelopePic":"","fresh":false,"host":"","id":24895,"isAdminAdd":false,"link":"https://mp.weixin.qq.com/s/7p8_PPVQT1wFPnM-iEOe_A","niceDate":"2022-11-07 00:00","niceShareDate":"2022-11-08 23:09","origin":"","prefix":"","projectLink":"","publishTime":1667750400000,"realSuperChapterId":407,"selfVisible":0,"shareDate":1667920182000,"shareUser":"","superChapterId":408,"superChapterName":"公众号","tags":[{"name":"公众号","url":"/wxarticle/list/408/1"}],"title":"Android 仿朋友圈全文、收起功能，支持话题、网址...","type":0,"userId":-1,"visible":1,"zan":0},{"adminAdd":false,"apkLink":"","audit":1,"author":"WinWang","canEdit":false,"chapterId":539,"chapterName":"未分类","collect":false,"courseId":13,"desc":"该项目是React版本开发的开眼App-web版本，项目主体基于React18+React-Vant+Mobx+axios开发完成,非常适合新手了解和学习用React开发一款移动端App；该项目涉及 React移动端屏幕适配，axios网络拦截器的使用，React父子组件传参回调，Mobx6在React函数编程中的运用，React路由监听等等","descMd":"","envelopePic":"https://www.wanandroid.com/blogimgs/aa877cf7-a2a0-477b-bae7-619d714adf5b.png","fresh":false,"host":"","id":24882,"isAdminAdd":false,"link":"https://www.wanandroid.com/blog/show/3447","niceDate":"2022-11-06 22:47","niceShareDate":"2022-11-06 22:47","origin":"","prefix":"","projectLink":"https://github.com/WinWang/react-oepn-eye","publishTime":1667746071000,"realSuperChapterId":293,"selfVisible":0,"shareDate":1667746071000,"shareUser":"","superChapterId":294,"superChapterName":"开源项目主Tab","tags":[{"name":"项目","url":"/project/list/1?cid=539"}],"title":"React版本开眼App","type":0,"userId":-1,"visible":1,"zan":0},{"adminAdd":false,"apkLink":"","audit":1,"author":"Peakmain","canEdit":false,"chapterId":539,"chapterName":"未分类","collect":false,"courseId":13,"desc":"对调用隐私方法的方法体替换成自己的方法(支持动态替换方法)，如：设备id,Mac地址,ssid,bssid，AndroidID等","descMd":"","envelopePic":"https://www.wanandroid.com/resources/image/pc/default_project_img.jpg","fresh":false,"host":"","id":24881,"isAdminAdd":false,"link":"https://www.wanandroid.com/blog/show/3446","niceDate":"2022-11-06 22:45","niceShareDate":"2022-11-06 22:45","origin":"","prefix":"","projectLink":"https://github.com/Peakmain/AsmActualCombat","publishTime":1667745916000,"realSuperChapterId":293,"selfVisible":0,"shareDate":1667745916000,"shareUser":"","superChapterId":294,"superChapterName":"开源项目主Tab","tags":[{"name":"项目","url":"/project/list/1?cid=539"}],"title":"Gradle+ASM实战&mdash;&mdash;隐私方法问题彻底解决","type":0,"userId":-1,"visible":1,"zan":0},{"adminAdd":false,"apkLink":"","audit":1,"author":"","canEdit":false,"chapterId":502,"chapterName":"自助","collect":false,"courseId":13,"desc":"","descMd":"","envelopePic":"","fresh":false,"host":"","id":24877,"isAdminAdd":false,"link":"https://juejin.cn/post/7162819765361672199","niceDate":"2022-11-06 16:42","niceShareDate":"2022-11-06 16:42","origin":"","prefix":"","projectLink":"","publishTime":1667724143000,"realSuperChapterId":493,"selfVisible":0,"shareDate":1667724143000,"shareUser":"彭旭锐","superChapterId":494,"superChapterName":"广场Tab","tags":[],"title":"Java 面试题：说一下 ArrayDeque 和 LinkedList 的区别？","type":0,"userId":30587,"visible":1,"zan":0},{"adminAdd":false,"apkLink":"","audit":1,"author":"","canEdit":false,"chapterId":502,"chapterName":"自助","collect":false,"courseId":13,"desc":"","descMd":"","envelopePic":"","fresh":false,"host":"","id":24861,"isAdminAdd":false,"link":"https://juejin.cn/post/7161709313638498318","niceDate":"2022-11-06 14:44","niceShareDate":"2022-11-04 08:29","origin":"","prefix":"","projectLink":"","publishTime":1667717087000,"realSuperChapterId":493,"selfVisible":0,"shareDate":1667521798000,"shareUser":"goweii","superChapterId":494,"superChapterName":"广场Tab","tags":[],"title":"Android并发编程的三个概念（原子性、可见性和有序性）","type":0,"userId":20382,"visible":1,"zan":0}],"offset":180,"over":false,"pageCount":678,"size":20,"total":13545},"errorCode":0,"errorMsg":""}